Homework Bird FeederWatch Data
…
Data_Entry_Method

character

0

0.000

8

0.00008

dataset1

# A tibble: 100,000 × 22
   loc_id    latitude longitude subnational1_code entry_technique  sub_id obs_id
   <chr>        <dbl>     <dbl> <chr>             <chr>            <chr>  <chr> 
 1 L981010       52.1    -122.  CA-BC             POSTCODE LAT/LO… S8320… OBS10…
 2 L3161698      43.8    -123.  US-OR             /GOOGLE_MAP/ZOO… S7803… OBS10…
 3 L13210778     39.7     -75.9 US-MD             /GOOGLE_MAP/ZOO… S8131… OBS10…
 4 L13258348     42.2     -83.7 US-MI             /GOOGLE_MAP/ZOO… S7925… OBS10…
 5 L149639       32.7     -79.9 US-SC             PointMaker1.0_2  S7918… OBS10…
 6 L10140349     46.1     -73.1 CA-QC             /GOOGLE_MAP/ZOO… S8344… OBS10…
 7 L74629        37.7    -122.  US-CA             POSTCODE LAT/LO… S8555… OBS11…
 8 L162342       40.2     -76.1 US-PA             POSTCODE LAT/LO… S8634… OBS11…
 9 L189158       40.9     -73.0 US-NY             PointMaker1.0_2  S8019… OBS10…
10 L19251        56.3    -121.  CA-BC             POSTCODE LAT/LO… S8649… OBS11…
# ℹ 99,990 more rows
# ℹ 15 more variables: Month <dbl>, Day <dbl>, Year <dbl>,
#   PROJ_PERIOD_ID <chr>, species_code <chr>, how_many <dbl>, valid <dbl>,
#   reviewed <dbl>, day1_am <dbl>, day1_pm <dbl>, day2_am <dbl>, day2_pm <dbl>,
#   effort_hrs_atleast <dbl>, snow_dep_atleast <dbl>, Data_Entry_Method <chr>
…
NA

1

1

NA

1

1.01

dataset2

# A tibble: 254,355 × 62
   loc_id  proj_period_id yard_type_pavement yard_type_garden yard_type_landsca
   <chr>   <chr>                       <dbl>            <dbl>             <dbl>
 1 L100016 PFW_2002                        0                0                 1
 2 L100016 PFW_2003                        0                0                 1
 3 L100016 PFW_2004                        0                0                 1
 4 L100016 PFW_2005                        0                0                 1
 5 L100016 PFW_2006                        0                0                 1
 6 L100016 PFW_2007                        0                0                 1
 7 L100019 PFW_2002                        0                0                 0
 8 L100019 PFW_2003                        0                0                 0
 9 L100019 PFW_2004                        0                0                 0
10 L100019 PFW_2005                        0                0                 0
# ℹ 254,345 more rows
# ℹ 57 more variables: yard_type_woods <dbl>, yard_type_desert <dbl>,
#   hab_dcid_woods <dbl>, hab_evgr_woods <dbl>, hab_mixed_woods <dbl>,
#   hab_orchard <dbl>, hab_park <dbl>, hab_water_fresh <dbl>,
#   hab_water_salt <dbl>, hab_residential <dbl>, hab_industrial <dbl>,
#   hab_agricultural <dbl>, hab_desert_scrub <dbl>, hab_young_woods <dbl>,
#   hab_swamp <dbl>, hab_marsh <dbl>, evgr_trees_atleast <dbl>, …
…
clean_dataset2 <- dataset2[, columns_to_extract]
clean_dataset2 #254,355 rows x 22 columns

# A tibble: 254,355 × 22
   hab_dcid_woods brsh_piles_atleast hab_water_fresh numfeeders_platfrm
            <dbl>              <dbl>           <dbl>              <dbl>
 1              1                  0               1                  1
 2              1                  0               1                  1
 3              1                  0               1                  1
 4              1                  0               1                  0
 5              1                  0               1                 NA
 6              1                  0               1                 NA
 7              1                  1               1                  1
 8              1                  1               1                  1
 9              1                  1               1                  1
10              1                  1               1                  2
# ℹ 254,345 more rows
# ℹ 18 more variables: hab_mixed_woods <dbl>, numfeeders_ground <dbl>,
#   hab_residential <dbl>, dogs <dbl>, cats <dbl>, evgr_shrbs_atleast <dbl>,
#   dcid_shrbs_atleast <dbl>, nearby_feeders <dbl>, population_atleast <dbl>,
#   evgr_trees_atleast <dbl>, dcid_trees_atleast <dbl>, humans <dbl>,
#   count_area_size_sq_m_atleast <dbl>, housing_density <dbl>,
#   numfeeders_suet <dbl>, squirrels <dbl>, loc_id <chr>, …

no_na_values_dataset2 <- na.omit(clean_dataset2)
no_na_values_dataset2 #121,918 x 22 columns

# A tibble: 121,918 × 22
   hab_dcid_woods brsh_piles_atleast hab_water_fresh numfeeders_platfrm
            <dbl>              <dbl>           <dbl>              <dbl>
 1              1                  0               1                  1
 2              1                  0               1                  1
 3              1                  0               1                  0
 4              1                  1               1                  1
 5              1                  1               1                  0
 6              1                  1               1                  0
 7              1                  1               1                  2
 8              1                  1               1                  2
 9              1                  1               1                  2
10              0                  1               1                  2
# ℹ 121,908 more rows
# ℹ 18 more variables: hab_mixed_woods <dbl>, numfeeders_ground <dbl>,
#   hab_residential <dbl>, dogs <dbl>, cats <dbl>, evgr_shrbs_atleast <dbl>,
#   dcid_shrbs_atleast <dbl>, nearby_feeders <dbl>, population_atleast <dbl>,
#   evgr_trees_atleast <dbl>, dcid_trees_atleast <dbl>, humans <dbl>,
#   count_area_size_sq_m_atleast <dbl>, housing_density <dbl>,
#   numfeeders_suet <dbl>, squirrels <dbl>, loc_id <chr>, …
…
