test_r-exercise-3
…
library(tidyverse)
as_tibble(Zoo, rownames = "animal")

# A tibble: 101 × 18
   animal  hair  feathers eggs  milk  airborne aquatic predator toothed backbone
   <chr>   <lgl> <lgl>    <lgl> <lgl> <lgl>    <lgl>   <lgl>    <lgl>   <lgl>   
 1 aardva… TRUE  FALSE    FALSE TRUE  FALSE    FALSE   TRUE     TRUE    TRUE    
 2 antelo… TRUE  FALSE    FALSE TRUE  FALSE    FALSE   FALSE    TRUE    TRUE    
 3 bass    FALSE FALSE    TRUE  FALSE FALSE    TRUE    TRUE     TRUE    TRUE    
 4 bear    TRUE  FALSE    FALSE TRUE  FALSE    FALSE   TRUE     TRUE    TRUE    
 5 boar    TRUE  FALSE    FALSE TRUE  FALSE    FALSE   TRUE     TRUE    TRUE    
 6 buffalo TRUE  FALSE    FALSE TRUE  FALSE    FALSE   FALSE    TRUE    TRUE    
 7 calf    TRUE  FALSE    FALSE TRUE  FALSE    FALSE   FALSE    TRUE    TRUE    
 8 carp    FALSE FALSE    TRUE  FALSE FALSE    TRUE    FALSE    TRUE    TRUE    
 9 catfish FALSE FALSE    TRUE  FALSE FALSE    TRUE    TRUE     TRUE    TRUE    
10 cavy    TRUE  FALSE    FALSE TRUE  FALSE    FALSE   FALSE    TRUE    TRUE    
# ℹ 91 more rows
# ℹ 8 more variables: breathes <lgl>, venomous <lgl>, fins <lgl>, legs <int>,
#   tail <lgl>, domestic <lgl>, catsize <lgl>, type <fct>
…
# The "extra=2" was preventing the plot from generated so I removed it.

Zoo_train_dummy <- as_tibble(class2ind(Zoo_train$type)) |> 
  mutate(across(everything(), as.factor)) |>
  add_column(predator = Zoo_train$predator)
Zoo_train_dummy

# A tibble: 83 × 8
   mammal bird  reptile fish  amphibian insect mollusc.et.al predator
   <fct>  <fct> <fct>   <fct> <fct>     <fct>  <fct>         <fct>   
 1 1      0     0       0     0         0      0             TRUE    
 2 1      0     0       0     0         0      0             FALSE   
 3 0      0     0       1     0         0      0             TRUE    
 4 1      0     0       0     0         0      0             TRUE    
 5 1      0     0       0     0         0      0             FALSE   
 6 1      0     0       0     0         0      0             FALSE   
 7 0      0     0       1     0         0      0             FALSE   
 8 0      0     0       1     0         0      0             TRUE    
 9 1      0     0       0     0         0      0             FALSE   
10 0      1     0       0     0         0      0             FALSE   
# ℹ 73 more rows
…
